{
  "users": [    
    {
      "userName": "Julia",
      "role": "user"
    },
    {
      "userName": "Helen",
      "role": "user"
    },
    {
      "userName": "Ben",
      "role": "user"
    },
    {
      "userName": "Admin",
      "role": "admin"
    }
  ]
}